<?xml version="1.0" encoding="UTF-8" standalone="no"?>
<svg width="81px" height="81px" viewBox="0 0 81 81" version="1.1" xmlns="http://www.w3.org/2000/svg" xmlns:xlink="http://www.w3.org/1999/xlink" xmlns:sketch="http://www.bohemiancoding.com/sketch/ns">
    <title>Slice 1 1</title>
    <description>Created with Sketch (http://www.bohemiancoding.com/sketch)</description>
    <defs></defs>
    <g id="Page-1" stroke="none" stroke-width="1" fill="none" fill-rule="evenodd" sketch:type="MSPage">
        <g id="magnifier13-copy" sketch:type="MSLayerGroup" transform="translate(0.472977, 1.736489)" fill="#000000">
            <g id="Group" sketch:type="MSShapeGroup">
                <path d="M59.1233404,48.5759255 C56.4036802,52.8056153 52.8044675,56.4030243 48.5747777,59.1228485 L66.828935,77.3770058 C69.7430675,80.2904824 74.4679565,80.2904824 77.375858,77.3770058 C80.2901545,74.4682845 80.2901545,69.7433955 77.376022,66.8300828 L59.1233404,48.5759255 Z" id="Shape"></path>
                <path d="M59.671339,29.8357515 C59.671339,13.3593921 46.3126028,0 29.8359155,0 C13.359556,0 0.000163973243,13.3593921 0.000163973243,29.8357515 C0.000163973243,46.3121109 13.359556,59.6708471 29.8359155,59.6708471 C46.3126028,59.6708471 59.671339,46.3121109 59.671339,29.8357515 L59.671339,29.8357515 Z M29.8359155,52.2117042 C17.496601,52.2117042 7.45930681,42.17523 7.45930681,29.8359155 C7.45930681,17.496601 17.496601,7.45930681 29.8359155,7.45930681 C42.174902,7.45930681 52.213016,17.496601 52.213016,29.8359155 C52.213016,42.17523 42.174902,52.2117042 29.8359155,52.2117042 L29.8359155,52.2117042 Z" id="Shape"></path>
                <path d="M12.4319594,29.8357515 L17.4039561,29.8357515 C17.4039561,22.981178 22.981342,17.404284 29.8357515,17.404284 L29.8357515,12.4317954 C20.2405292,12.4317954 12.4319594,20.2403652 12.4319594,29.8357515 L12.4319594,29.8357515 Z" id="Shape"></path>
            </g>
        </g>
    </g>
</svg>